{
  "hash": "04fb2077",
  "configHash": "f5c46b37",
  "lockfileHash": "ed6e2e18",
  "browserHash": "e3a632de",
  "optimized": {
    "vue": {
      "src": "../../../node_modules/vue/dist/vue.runtime.esm-bundler.js",
      "file": "vue.js",
      "fileHash": "5430f5aa",
      "needsInterop": false
    },
    "vitepress > @vue/devtools-api": {
      "src": "../../../node_modules/@vue/devtools-api/lib/esm/index.js",
      "file": "vitepress___@vue_devtools-api.js",
      "fileHash": "65c524bf",
      "needsInterop": false
    },
    "vitepress > @vueuse/core": {
      "src": "../../../node_modules/@vueuse/core/index.mjs",
      "file": "vitepress___@vueuse_core.js",
      "fileHash": "24e42893",
      "needsInterop": false
    },
    "medium-zoom": {
      "src": "../../../node_modules/medium-zoom/dist/medium-zoom.esm.js",
      "file": "medium-zoom.js",
      "fileHash": "71eeff63",
      "needsInterop": false
    }
  },
  "chunks": {
    "chunk-JQ5QMZ5J": {
      "file": "chunk-JQ5QMZ5J.js"
    }
  }
}