[
  {
    "question": "Quelle est la fonction principale du hachage dans la sécurité des données ?",
    "answers": [
      "A. Chiffrer et déchiffrer les données",
      "B. Augmenter la vitesse de transmission des données",
      "C. Vérifier l'intégrité des données",
      "D. Stocker les données de manière sécurisée"
    ],
    "correct": 2,
    "explanation": "C. Le hachage est principalement utilisé pour vérifier l'intégrité des données, en produisant un résumé unique des données qui aide à détecter les modifications non autorisées."
  },
  {
    "question": "Quel type de chiffrement utilise la même clé pour chiffrer et déchiffrer les données ?",
    "answers": [
      "A. Chiffrement asymétrique",
      "B. Chiffrement symétrique",
      "C. Chiffrement hybride",
      "D. SSL/TLS"
    ],
    "correct": 1,
    "explanation": "B. Le chiffrement symétrique utilise la même clé pour chiffrer et déchiffrer les données, ce qui le rend rapide mais nécessite une gestion sécurisée de la clé."
  },
  {
    "question": "Qu'est-ce qu'une signature numérique ?",
    "answers": [
      "A. Un code secret pour déverrouiller des données chiffrées",
      "B. Un mécanisme pour vérifier l'authenticité et l'intégrité des données",
      "C. Une méthode pour crypter les e-mails",
      "D. Un type de virus informatique"
    ],
    "correct": 1,
    "explanation": "B. Une signature numérique est un mécanisme utilisé pour vérifier l'authenticité et l'intégrité des données, garantissant que les données proviennent de la source affirmée et n'ont pas été modifiées."
  },
  {
    "question": "Que signifie le terme 'collision' dans le contexte du hachage ?",
    "answers": [
      "A. Une situation où deux utilisateurs tentent d'accéder aux mêmes données simultanément",
      "B. Un conflit d'adresse IP sur un réseau",
      "C. Un événement où deux entrées distinctes produisent le même hash",
      "D. Une erreur de transmission des données"
    ],
    "correct": 2,
    "explanation": "C. Une collision en hachage se produit lorsqu'on trouve deux entrées distinctes qui donnent le même hash, ce qui est indésirable car cela compromet l'unicité des résumés produits par l'algorithme de hachage."
  },
  {
    "question": "Quel est l'avantage principal du chiffrement asymétrique par rapport au chiffrement symétrique ?",
    "answers": [
      "A. Il est plus rapide",
      "B. Il utilise la même clé pour chiffrer et déchiffrer",
      "C. Il ne nécessite pas l'échange sécurisé de clés",
      "D. Il utilise moins de ressources système"
    ],
    "correct": 2,
    "explanation": "C. L'avantage principal du chiffrement asymétrique est qu'il ne nécessite pas l'échange sécurisé de clés, car il utilise une clé publique pour chiffrer les données et une clé privée pour les déchiffrer."
  },
  {
    "question": "Quel est l'avantage principal du salage (salt) des mots de passe avant leur hachage ?",
    "answers": [
      "A. Il permet de décrypter les mots de passe plus facilement en cas de besoin.",
      "B. Il rend les attaques par force brute plus rapides et efficaces.",
      "C. Il rend les attaques par dictionnaire et par force brute plus difficiles.",
      "D. Il diminue la taille du hash final pour économiser l'espace de stockage."
    ],
    "correct": 2,
    "explanation": "C. En ajoutant un sel unique aux mots de passe avant leur hachage, le salage complique les attaques par dictionnaire et par force brute, car chaque mot de passe nécessite un effort de devinette individuel."
  },
  {
    "question": "Quelle est la différence principale entre le chiffrement symétrique et asymétrique ?",
    "answers": [
      "A. Le chiffrement symétrique utilise une clé unique pour le chiffrement et le déchiffrement, tandis que l'asymétrique utilise une paire de clés.",
      "B. Le chiffrement asymétrique est généralement plus rapide que le symétrique.",
      "C. Le chiffrement symétrique ne peut pas être utilisé pour les communications sur Internet.",
      "D. Le chiffrement asymétrique ne permet pas le chiffrement de grands volumes de données."
    ],
    "correct": 0,
    "explanation": "A. Le chiffrement symétrique utilise la même clé pour chiffrer et déchiffrer les données, tandis que le chiffrement asymétrique utilise une paire de clés distinctes pour ces opérations."
  },
  {
    "question": "Pourquoi est-il important de vérifier le hash d'un fichier téléchargé ?",
    "answers": [
      "A. Pour s'assurer que le fichier n'a pas été modifié ou corrompu pendant le téléchargement.",
      "B. Pour confirmer que le fichier provient d'une source fiable.",
      "C. Pour accélérer le processus de téléchargement du fichier.",
      "D. Pour réduire la taille du fichier téléchargé."
    ],
    "correct": 0,
    "explanation": "A. Vérifier le hash d'un fichier téléchargé permet de s'assurer que le fichier n'a pas été altéré ou corrompu en cours de route, garantissant ainsi l'intégrité et la sécurité des données."
  },
  {
    "question": "Quel type de chiffrement est utilisé par SSL/TLS pour sécuriser les communications sur Internet ?",
    "answers": [
      "A. Uniquement le chiffrement asymétrique",
      "B. Uniquement le chiffrement symétrique",
      "C. Un mélange de chiffrement symétrique et asymétrique",
      "D. Aucun des deux, SSL/TLS utilise un autre type de technologie de sécurité"
    ],
    "correct": 2,
    "explanation": "C. SSL/TLS utilise le chiffrement asymétrique pour l'échange sécurisé des clés de chiffrement, puis utilise ces clés dans un chiffrement symétrique pour sécuriser la communication de données."
  }
]
